word,count
a+,0
abound,0
abounds,0
abundance,2
abundant,1
accessable,0
accessible,5
acclaim,0
acclaimed,0
acclamation,0
accolade,0
accolades,0
accommodative,0
accomodative,0
accomplish,21
accomplished,0
accomplishment,2
accomplishments,0
accurate,3
accurately,0
achievable,0
achievement,6
achievements,0
achievible,0
acumen,0
adaptable,0
adaptive,0
adequate,0
adjustable,1
admirable,0
admirably,0
admiration,0
admire,7
admirer,0
admiring,0
admiringly,0
adorable,20
adore,11
adored,0
adorer,0
adoring,0
adoringly,0
adroit,0
adroitly,0
adulate,0
adulation,0
adulatory,0
advanced,0
advantage,22
advantageous,0
advantageously,0
advantages,0
adventuresome,0
adventurous,2
advocate,0
advocated,0
advocates,0
affability,0
affable,0
affably,0
affectation,0
affection,2
affectionate,0
affinity,0
affirm,0
affirmation,0
affirmative,0
affluence,1
affluent,0
afford,118
affordable,2
affordably,0
afordable,0
agile,1
agilely,0
agility,0
agreeable,1
agreeableness,0
agreeably,0
all-around,0
alluring,0
alluringly,0
altruistic,0
altruistically,0
amaze,381
amazed,0
amazement,1
amazes,0
amazing,0
amazingly,11
ambitious,1
ambitiously,0
ameliorate,1
amenable,0
amenity,0
amiability,0
amiabily,0
amiable,0
amicability,0
amicable,0
amicably,1
amity,0
ample,0
amply,0
amuse,18
amusing,0
amusingly,0
angel,69
angelic,1
apotheosis,0
appeal,13
appealing,0
applaud,1
appreciable,0
appreciate,41
appreciated,0
appreciates,0
appreciative,2
appreciatively,0
appropriate,6
approval,4
approve,8
ardent,0
ardently,0
ardor,0
articulate,2
aspiration,1
aspirations,0
aspire,2
assurance,0
assurances,0
assure,3
assuredly,1
assuring,0
astonish,1
astonished,0
astonishing,0
astonishingly,0
astonishment,0
astound,3
astounded,0
astounding,0
astoundingly,1
astutely,0
attentive,0
attraction,2
attractive,12
attractively,0
attune,0
audible,2
audibly,0
auspicious,0
authentic,1
authoritative,0
autonomous,0
available,108
aver,1
avid,0
avidly,0
award,31
awarded,0
awards,0
awe,60
awed,0
awesome,480
awesomely,3
awesomeness,8
awestruck,0
awsome,20
backbone,0
balanced,0
bargain,5
beauteous,0
beautiful,354
beautifullly,0
beautifully,3
beautify,0
beauty,30
beckon,8
beckoned,0
beckoning,0
beckons,0
believable,0
believeable,0
beloved,20
benefactor,0
beneficent,0
beneficial,0
beneficially,0
beneficiary,0
benefit,15
benefits,0
benevolence,0
benevolent,1
benifits,0
best,0
best-known,0
best-performing,0
best-selling,0
better,1
better-known,0
better-than-expected,0
beutifully,0
blameless,0
bless,61
blessing,1
bliss,15
blissful,3
blissfully,2
blithe,1
blockbuster,7
bloom,15
blossom,10
bolster,0
bonny,2
bonus,10
bonuses,0
boom,20
booming,0
boost,3
boundless,0
bountiful,0
brainiest,0
brainy,0
brand-new,0
brave,16
bravery,1
bravo,1
breakthrough,0
breakthroughs,0
breathlessness,0
breathtaking,1
breathtakingly,0
breeze,2
bright,61
brighten,0
brighter,0
brightest,0
brilliance,2
brilliances,0
brilliant,41
brilliantly,1
brisk,0
brotherly,0
bullish,0
buoyant,0
cajole,0
calm,21
calming,0
calmness,0
capability,5
capable,6
capably,0
captivate,1
captivating,0
carefree,0
cashback,1
cashbacks,0
catchy,4
celebrate,69
celebrated,0
celebration,10
celebratory,1
champ,5
champion,11
charisma,0
charismatic,0
charitable,0
charm,19
charming,0
charmingly,0
chaste,0
cheaper,0
cheapest,0
cheer,127
cheerful,5
cheery,3
cherish,5
cherished,0
cherub,2
chic,2
chivalrous,0
chivalry,0
civility,0
civilize,2
clarity,1
classic,24
classy,5
clean,811
cleaner,2
cleanest,0
cleanliness,0
cleanly,0
clear,70
clear-cut,0
cleared,0
clearer,0
clearly,37
clears,0
clever,8
cleverly,0
cohere,0
coherence,0
coherent,0
cohesive,0
colorful,1
comely,0
comfort,29
comfortable,17
comfortably,3
comforting,0
comfy,20
commend,0
commendable,1
commendably,0
commitment,4
commodious,0
compact,2
compactly,0
compassion,3
compassionate,0
compatible,8
competitive,5
complement,1
complementary,1
complemented,0
complements,0
compliant,0
compliment,4
complimentary,0
comprehensive,2
conciliate,0
conciliatory,0
concise,0
confidence,8
confident,12
congenial,0
congratulate,1
congratulation,14
congratulations,0
congratulatory,0
conscientious,0
considerate,0
consistent,3
consistently,1
constructive,3
consummate,1
contentment,0
continuity,4
contrasty,0
contribution,4
convenience,0
convenient,1
conveniently,0
convience,0
convienient,0
convient,0
convincing,0
convincingly,2
cool,490
coolest,0
cooperative,2
cooperatively,1
cornerstone,1
correct,23
correctly,13
cost-effective,0
cost-saving,0
counter-attack,0
counter-attacks,0
courage,7
courageous,2
courageously,0
courageousness,0
courteous,0
courtly,0
covenant,1
cozy,12
creative,29
credence,1
credible,2
crisp,21
crisper,0
cure,53
cure-all,0
cushy,0
cute,222
cuteness,1
danke,1
danken,0
daring,0
daringly,0
darling,25
dashing,0
dauntless,0
dawn,33
dazzle,2
dazzled,0
dazzling,0
dead-cheap,0
dead-on,0
decency,1
decent,64
decisive,0
decisiveness,0
dedicated,0
defeat,14
defeated,0
defeating,0
defeats,0
defender,0
deference,0
deft,0
deginified,0
delectable,0
delicacy,0
delicate,4
delicious,42
delight,7
delighted,0
delightful,3
delightfully,0
delightfulness,0
dependable,1
dependably,0
deservedly,0
deserving,0
desirable,1
desiring,0
desirous,0
destiny,6
detachable,0
devout,0
dexterous,0
dexterously,0
dextrous,0
dignified,0
dignify,1
dignity,2
diligence,0
diligent,0
diligently,1
diplomatic,0
dirt-cheap,0
distinction,2
distinctive,1
distinguished,0
diversified,0
divine,7
divinely,0
dominate,10
dominated,0
dominates,0
dote,0
dotingly,0
doubtless,0
dreamland,2
dumbfounded,2
dumbfounding,0
dummy-proof,0
durable,0
dynamic,2
eager,2
eagerly,4
eagerness,0
earnest,0
earnestly,0
earnestness,0
ease,12
eased,0
eases,0
easier,0
easiest,0
easiness,0
easing,0
easy,193
easy-to-use,0
easygoing,0
ebullience,0
ebullient,0
ebulliently,0
ecenomical,0
economical,0
ecstasies,0
ecstasy,0
ecstatic,3
ecstatically,0
edify,0
educated,0
effective,4
effectively,3
effectiveness,2
effectual,0
efficacious,0
efficient,2
efficiently,2
effortless,0
effortlessly,1
effusion,0
effusive,0
effusively,0
effusiveness,0
elan,0
elate,0
elated,0
elatedly,0
elation,0
electrify,1
elegance,1
elegant,1
elegantly,0
elevate,2
elite,5
eloquence,0
eloquent,1
eloquently,1
embolden,0
eminence,0
eminent,0
empathize,0
empathy,1
empower,0
empowerment,0
enchant,3
enchanted,0
enchanting,0
enchantingly,0
encourage,10
encouragement,5
encouraging,0
encouragingly,0
endear,1
endearing,0
endorse,0
endorsed,0
endorsement,0
endorses,0
endorsing,0
energetic,5
energize,2
energy-efficient,0
energy-saving,0
engaging,0
engrossing,0
enhance,4
enhanced,0
enhancement,0
enhances,0
enjoy,445
enjoyable,5
enjoyably,0
enjoyed,0
enjoying,0
enjoyment,5
enjoys,0
enlighten,1
enlightenment,0
enliven,0
ennoble,0
enough,508
enrapt,0
enrapture,0
enraptured,0
enrich,1
enrichment,0
enterprising,0
entertain,37
entertaining,0
entertains,0
enthral,0
enthrall,0
enthralled,0
enthuse,1
enthusiasm,5
enthusiast,2
enthusiastic,2
enthusiastically,0
entice,3
enticed,0
enticing,0
enticingly,0
entranced,0
entrancing,0
entrust,0
enviable,0
enviably,0
envious,17
enviously,0
enviousness,0
envy,31
equitable,0
ergonomical,0
err-free,0
erudite,1
ethical,1
eulogize,0
euphoria,1
euphoric,0
euphorically,0
evaluative,0
evenly,0
eventful,10
everlasting,0
evocative,0
exalt,1
exaltation,0
exalted,0
exaltedly,0
exalting,0
exaltingly,0
examplar,0
examplary,0
excallent,0
exceed,10
exceeded,0
exceeding,0
exceedingly,2
exceeds,0
excel,11
exceled,0
excelent,0
excellant,0
excelled,0
excellence,0
excellency,0
excellent,33
excellently,0
excels,0
exceptional,2
exceptionally,1
excite,327
excited,0
excitedly,0
excitedness,0
excitement,13
excites,0
exciting,0
excitingly,1
exellent,0
exemplar,0
exemplary,0
exhilarate,0
exhilarating,0
exhilaratingly,0
exhilaration,0
exonerate,0
expansive,0
expeditiously,0
expertly,0
exquisite,0
exquisitely,0
extol,0
extoll,0
extraordinarily,1
extraordinary,3
exuberance,0
exuberant,0
exuberantly,0
exult,0
exultant,0
exultation,0
exultingly,0
eye-catch,0
eye-catching,0
eyecatch,0
eyecatching,0
fabulous,23
fabulously,0
facilitate,1
fair,226
fairly,12
fairness,1
faith,24
faithful,4
faithfully,1
faithfulness,0
fame,9
famed,0
famous,40
famously,0
fancier,0
fancinating,0
fancy,37
fanfare,0
fans,0
fantastic,65
fantastically,0
fascinate,6
fascinating,0
fascinatingly,0
fascination,0
fashionable,0
fashionably,1
fast,328
fast-growing,0
fast-paced,0
faster,0
fastest,0
fastest-growing,0
faultless,0
fav,66
fave,49
favor,10
favorable,0
favored,0
favorite,144
favorited,0
favour,5
fearless,4
fearlessly,0
feasible,1
feasibly,0
feat,0
feature-rich,0
fecilitous,0
feisty,2
felicitate,0
felicitous,0
felicity,3
fertile,0
fervent,0
fervently,0
fervid,0
fervidly,0
fervor,0
festive,1
fidelity,0
fiery,1
fine,200
fine-looking,0
finely,1
finer,0
finest,0
firmer,0
first-class,0
first-in-class,0
first-rate,0
flashy,0
flatter,2
flattering,0
flatteringly,0
flawless,2
flawlessly,0
flexibility,0
flexible,1
flourish,0
flourishing,0
fluent,0
flutter,1
fond,11
fondly,0
fondness,0
foolproof,0
foremost,0
foresight,0
formidable,0
fortitude,0
fortuitous,0
fortuitously,0
fortunate,4
fortunately,5
fortune,7
fragrant,0
free,314
freed,0
freedom,38
freedoms,0
fresh,59
fresher,1
freshest,0
friendliness,0
friendly,27
frolic,2
frugal,0
fruitful,0
ftw,25
fulfillment,1
fun,1279
futurestic,0
futuristic,0
gaiety,0
gaily,0
gain,53
gained,0
gainful,0
gainfully,0
gaining,0
gains,0
gallant,0
gallantly,0
galore,4
geekier,0
geeky,6
gem,15
gems,0
generosity,0
generous,2
generously,0
genial,1
genius,23
gentle,4
gentlest,0
genuine,0
gifted,0
glad,261
gladden,0
gladly,3
gladness,0
glamorous,0
glee,4
gleeful,1
gleefully,0
glimmer,0
glimmering,0
glisten,0
glistening,0
glitter,5
glitz,0
glorify,0
glorious,34
gloriously,3
glory,9
glow,11
glowing,0
glowingly,0
god-given,0
god-send,0
godlike,1
godsend,0
gold,42
golden,34
good,6221
goodly,0
goodness,48
goodwill,1
goood,20
gooood,8
gorgeous,101
gorgeously,0
grace,16
graceful,0
gracefully,0
gracious,0
graciously,0
graciousness,0
grand,48
grandeur,1
grateful,10
gratefully,1
gratification,0
gratified,0
gratifies,0
gratify,0
gratifying,0
gratifyingly,0
gratitude,1
great,1148
greatest,0
greatness,4
grin,6
groundbreaking,0
guarantee,7
guidance,2
guiltless,0
gumption,0
gush,0
gusto,3
gutsy,1
hail,10
halcyon,0
hale,2
hallmark,6
hallmarks,0
hallowed,0
handier,0
handily,0
hands-down,0
handsome,5
handsomely,0
handy,4
happier,0
happily,11
happiness,22
happy,983
hard-working,0
hardier,0
hardy,6
harmless,2
harmonious,1
harmoniously,0
harmonize,1
harmony,4
headway,1
heal,51
healthful,0
healthy,47
hearten,0
heartening,0
heartfelt,0
heartily,0
heartwarming,0
heaven,38
heavenly,0
helped,0
helpful,13
helping,0
hero,66
heroic,1
heroically,0
heroine,1
heroize,0
heros,3
high-quality,0
high-spirited,0
hilarious,28
holy,86
homage,0
honest,35
honesty,0
honor,18
honorable,2
honored,0
honoring,0
hooray,17
hopeful,8
hospitable,0
hot,632
hotcake,0
hotcakes,0
hottest,0
hug,316
humane,0
humble,5
humility,0
humor,6
humorous,0
humorously,0
humour,3
humourous,1
ideal,12
idealize,0
ideally,1
idol,74
idolize,0
idolized,0
idyllic,0
illuminate,0
illuminati,0
illuminating,0
illumine,0
illustrious,0
ilu,7
imaculate,0
imaginative,0
immaculate,0
immaculately,0
immense,4
impartial,0
impartiality,0
impartially,0
impassioned,0
impeccable,0
impeccably,0
important,61
impress,41
impressed,0
impresses,0
impressive,8
impressively,0
impressiveness,0
improve,30
improved,0
improvement,12
improvements,0
improves,0
improving,0
incredible,14
incredibly,39
indebted,0
individualized,0
indulgence,0
indulgent,0
industrious,0
inestimable,0
inestimably,0
inexpensive,0
infallibility,0
infallible,0
infallibly,0
influential,0
ingenious,0
ingeniously,0
ingenuity,0
ingenuous,0
ingenuously,0
innocuous,0
innovation,2
innovative,3
inpressed,0
insightful,1
insightfully,0
inspiration,17
inspirational,3
inspire,25
inspiring,0
instantly,4
instructive,0
instrumental,1
integral,0
integrated,0
intelligence,2
intelligent,3
intelligible,0
interesting,0
interests,0
intimacy,2
intimate,3
intricate,1
intrigue,6
intriguing,0
intriguingly,0
intuitive,0
invaluable,1
invaluablely,0
inventive,0
invigorate,0
invigorating,0
invincibility,0
invincible,4
inviolable,0
inviolate,0
invulnerable,0
irreplaceable,1
irreproachable,0
irresistible,0
irresistibly,0
issue-free,0
jaw-droping,0
jaw-dropping,0
jollify,0
jolly,2
jovial,0
joy,98
joyful,1
joyfully,0
joyous,1
joyously,0
jubilant,0
jubilantly,0
jubilate,0
jubilation,0
jubiliant,0
judicious,0
justly,0
keen,18
keenly,0
keenness,0
kid-friendly,0
kindliness,0
kindly,1
kindness,2
knowledgeable,0
kudos,0
large-capacity,0
laud,0
laudable,0
laudably,0
lavish,1
lavishly,0
law-abiding,0
lawful,0
lawfully,0
lead,67
leading,0
leads,0
lean,10
led,0
legendary,4
leverage,0
levity,0
liberate,1
liberation,0
liberty,4
lifesaver,1
light-hearted,0
lighter,1
likable,1
like,5217
liked,0
likes,0
liking,0
lionhearted,0
lively,2
logical,3
long-lasting,0
lovable,0
lovably,0
love,2454
loved,0
loveliness,0
lovely,301
lover,37
loves,0
loving,0
low-cost,0
low-price,0
low-priced,0
low-risk,0
lower-priced,0
loyal,7
loyalty,1
lucid,0
lucidly,0
luck,398
luckier,0
luckiest,0
luckiness,0
lucky,274
lucrative,0
luminous,0
lush,10
luster,1
lustrous,0
luxuriant,0
luxuriate,0
luxurious,0
luxuriously,0
luxury,11
lyrical,2
magic,71
magical,5
magnanimous,0
magnanimously,0
magnificence,0
magnificent,1
magnificently,0
majestic,2
majesty,2
manageable,0
maneuverable,0
marvel,5
marveled,0
marvelled,0
marvellous,0
marvelous,3
marvelously,0
marvelousness,0
marvels,0
master,31
masterful,0
masterfully,0
masterpiece,2
masterpieces,0
masters,0
mastery,0
matchless,0
mature,4
maturely,0
maturity,1
meaningful,0
memorable,3
merciful,0
mercifully,0
mercy,11
merit,0
meritorious,0
merrily,0
merriment,0
merriness,0
merry,2
mesmerize,0
mesmerized,0
mesmerizes,0
mesmerizing,0
mesmerizingly,0
meticulous,0
meticulously,0
mightily,0
mighty,16
mind-blowing,0
miracle,14
miracles,0
miraculous,0
miraculously,1
miraculousness,0
modern,16
modest,1
modesty,0
momentous,0
monumental,1
monumentally,0
morality,2
motivated,0
multi-purpose,0
navigable,0
neat,10
neatest,0
neatly,2
nice,971
nicely,17
nicer,0
nicest,0
nifty,3
nimble,0
noble,10
nobly,0
noiseless,0
non-violence,0
non-violent,0
notably,0
noteworthy,0
nourish,0
nourishing,0
nourishment,0
novelty,0
nurturing,0
oasis,7
obsession,9
obsessions,0
obtainable,0
openly,0
openness,1
optimal,1
optimism,0
optimistic,6
opulent,0
orderly,0
originality,2
outdo,0
outdone,0
outperform,0
outperformed,0
outperforming,0
outperforms,0
outshine,0
outshone,0
outsmart,0
outstanding,3
outstandingly,0
outstrip,0
outwit,0
ovation,1
overjoyed,1
overtake,7
overtaken,0
overtakes,0
overtaking,0
overtook,0
overture,0
pain-free,0
painless,1
painlessly,1
palatial,0
pamper,4
pampered,0
pamperedly,0
pamperedness,0
pampers,0
panoramic,0
paradise,12
paramount,3
pardon,3
passion,22
passionate,0
passionately,1
patience,11
patient,34
patiently,6
patriot,4
patriotic,0
peace,84
peaceable,0
peaceful,8
peacefully,2
peacekeepers,0
peach,17
peerless,0
pep,4
pepped,0
pepping,0
peppy,0
peps,0
perfect,123
perfection,3
perfectly,22
permissible,0
perseverance,0
persevere,0
personages,0
personalized,0
phenomenal,2
phenomenally,0
picturesque,0
piety,0
pinnacle,1
playful,0
playfully,0
pleasant,21
pleasantly,0
pleased,0
pleases,0
pleasing,0
pleasingly,0
pleasurable,0
pleasurably,0
pleasure,16
plentiful,1
pluses,0
plush,0
plusses,0
poetic,3
poeticize,0
poignant,0
poise,0
poised,0
polished,0
polite,6
politeness,0
popular,25
portable,5
posh,9
positive,40
positively,1
positives,0
powerful,4
powerfully,0
praise,10
praiseworthy,0
praising,0
pre-eminent,0
precious,17
precise,5
precisely,4
preeminent,0
prefer,30
preferable,0
preferably,3
prefered,2
preferes,0
preferring,0
prefers,0
premier,20
prestige,0
prestigious,0
prettily,0
pretty,669
priceless,5
pride,17
principled,1
privilege,3
privileged,0
prize,35
proactive,2
problem-free,0
problem-solver,0
prodigious,0
prodigiously,0
prodigy,8
productive,53
productively,1
proficient,0
proficiently,0
profound,2
profoundly,0
profuse,1
profusion,0
progress,31
progressive,2
prolific,1
prominence,0
prominent,0
promise,113
promised,0
promises,0
promising,0
promoter,2
prompt,6
promptly,1
proper,46
properly,85
propitious,0
propitiously,0
pros,0
prosper,3
prosperity,0
prosperous,0
prospros,0
protect,19
protection,5
protective,2
proud,34
proven,0
proves,0
providence,3
proving,0
prowess,0
prudence,1
prudent,0
prudently,0
punctual,0
pure,32
purify,0
purposeful,0
quaint,1
qualified,0
qualify,9
quicker,0
quiet,110
quieter,0
radiance,0
radiant,0
rapid,5
rapport,0
rapt,0
rapture,1
raptureous,0
raptureously,0
rapturous,0
rapturously,0
rational,2
razor-sharp,0
reachable,1
readable,1
readily,1
ready,908
reaffirm,0
reaffirmation,0
realistic,4
realizable,0
reasonable,4
reasonably,1
reasoned,0
reassurance,0
reassure,3
receptive,0
reclaim,1
recomend,0
recommend,31
recommendation,13
recommendations,0
recommended,0
reconcile,0
reconciliation,0
record-setting,0
recover,76
recovery,15
rectification,0
rectify,0
rectifying,0
redeem,5
redeeming,0
redemption,0
refine,2
refined,0
refinement,0
reform,3
reformed,0
reforming,0
reforms,0
refresh,20
refreshed,0
refreshing,0
refund,10
refunded,0
regal,2
regally,0
regard,15
rejoice,3
rejoicing,0
rejoicingly,0
rejuvenate,1
rejuvenated,0
rejuvenating,0
relaxed,0
relent,0
reliable,11
reliably,0
relief,13
relish,0
remarkable,0
remarkably,0
remedy,13
remission,0
remunerate,0
renaissance,2
renewed,0
renown,0
renowned,1
replaceable,0
reputable,0
reputation,3
resilient,0
resolute,0
resound,0
resounding,0
resourceful,0
resourcefulness,0
respect,23
respectable,1
respectful,0
respectfully,1
respite,0
resplendent,0
responsibly,0
responsive,2
restful,1
restored,0
restructure,1
restructured,0
restructuring,0
retractable,0
revel,1
revelation,5
revere,0
reverence,0
reverent,0
reverently,0
revitalize,0
revival,2
revive,4
revives,0
revolutionary,2
revolutionize,0
revolutionized,0
revolutionizes,0
reward,8
rewarding,0
rewardingly,0
rich,34
richer,0
richly,0
richness,0
right,1797
righten,0
righteous,2
righteously,0
righteousness,0
rightful,0
rightfully,1
rightly,1
rightness,0
risk-free,0
robust,0
rock-star,0
rock-stars,0
rockstar,11
rockstars,0
romantic,9
romantically,1
romanticize,0
roomier,0
roomy,0
rosy,1
safe,90
safely,13
sagacity,0
sagely,0
saint,17
saintliness,0
saintly,0
salutary,0
salute,0
sane,3
satisfactorily,0
satisfactory,0
satisfied,0
satisfies,0
satisfy,18
satisfying,0
satisified,0
saver,2
savings,0
savior,1
savvy,4
scenic,2
seamless,0
seasoned,0
secure,2
securely,1
selective,2
self-determination,0
self-respect,0
self-satisfaction,0
self-sufficiency,0
self-sufficient,0
sensation,6
sensational,0
sensationally,0
sensations,0
sensible,3
sensibly,1
sensitive,12
serene,0
serenity,5
sexy,68
sharp,10
sharper,0
sharpest,0
shimmering,0
shimmeringly,0
shine,103
shiny,20
significant,7
silent,17
simpler,0
simplest,0
simplified,0
simplifies,0
simplify,1
simplifying,0
sincere,3
sincerely,2
sincerity,0
skill,29
skilled,1
skillful,0
skillfully,0
slammin,1
sleek,2
slick,4
smart,49
smarter,0
smartest,0
smartly,0
smile,68
smiles,0
smiling,0
smilingly,0
smitten,0
smooth,11
smoother,0
smoothes,0
smoothest,0
smoothly,2
snappy,0
snazzy,1
sociable,1
soft,25
softer,0
solace,3
solicitous,0
solicitously,0
solid,15
solidarity,0
soothe,10
soothingly,0
sophisticated,0
soulful,0
soundly,0
soundness,0
spacious,0
sparkle,9
sparkling,0
spectacular,9
spectacularly,1
speedily,0
speedy,4
spellbind,0
spellbinding,0
spellbindingly,0
spellbound,0
spirited,0
spiritual,3
splendid,3
splendidly,0
splendor,1
spontaneous,3
sporty,0
spotless,2
sprightly,0
stability,0
stabilize,0
stable,15
stainless,0
standout,0
state-of-the-art,0
stately,0
statuesque,0
staunch,0
staunchly,0
staunchness,0
steadfast,0
steadfastly,0
steadfastness,0
steadiest,0
steadiness,0
steady,4
stellar,2
stellarly,0
stimulate,3
stimulates,0
stimulating,0
stimulative,0
stirringly,0
straighten,14
straightforward,3
streamlined,0
striking,0
strikingly,0
striving,0
strong,75
stronger,0
strongest,0
stunned,0
stunning,0
stunningly,0
stupendous,0
stupendously,0
sturdier,0
sturdy,1
stylish,1
stylishly,0
stylized,0
suave,0
suavely,0
sublime,0
subsidize,0
subsidized,0
subsidizes,0
subsidizing,0
substantive,0
succeed,8
succeeded,0
succeeding,0
succeeds,0
succes,3
success,20
successes,0
successful,16
successfully,3
suffice,2
sufficed,0
suffices,0
sufficient,2
sufficiently,0
suitable,4
sumptuous,0
sumptuously,0
sumptuousness,0
super,328
superb,3
superbly,0
superior,2
superiority,1
supple,1
support,136
supported,0
supporter,5
supporting,0
supportive,2
supports,0
supremacy,0
supreme,4
supremely,1
supurb,0
supurbly,0
surmount,0
surpass,0
surreal,1
survival,4
survivor,4
sustainability,1
sustainable,2
swank,0
swankier,0
swankiest,0
swanky,0
sweeping,0
sweet,248
sweeten,1
sweetheart,14
sweetly,0
sweetness,3
swift,36
swiftness,0
talent,49
talented,9
talents,0
tantalize,0
tantalizing,0
tantalizingly,0
tempt,37
tempting,0
temptingly,0
tenacious,1
tenaciously,0
tenacity,1
tender,4
tenderly,0
terrific,3
terrifically,0
thank,979
thankful,17
thinner,0
thoughtful,2
thoughtfully,0
thoughtfulness,0
thrift,0
thrifty,0
thrill,18
thrilled,0
thrilling,0
thrillingly,0
thrills,0
thrive,2
thriving,0
thumb-up,0
thumbs-up,0
tickle,3
tidy,52
time-honored,0
timely,0
tingle,4
titillate,0
titillating,0
titillatingly,0
togetherness,0
tolerable,2
toll-free,0
top,205
top-notch,0
top-quality,0
topnotch,0
tops,0
tough,104
tougher,0
toughest,0
traction,1
tranquil,1
tranquility,0
transparent,2
treasure,6
tremendously,3
trendy,4
triumph,1
triumphal,0
triumphant,0
triumphantly,1
trivially,0
trophy,9
trouble-free,0
trump,4
trumpet,2
trust,59
trusted,0
trusting,0
trustingly,0
trustworthiness,1
trustworthy,0
trusty,1
truthful,0
truthfully,2
truthfulness,0
twinkly,0
ultra-crisp,0
unabashed,0
unabashedly,0
unaffected,1
unassailable,0
unbeatable,0
unbiased,0
unbound,0
uncomplicated,0
unconditional,0
undamaged,0
undaunted,1
understandable,2
undisputable,0
undisputably,0
undisputed,1
unencumbered,0
unequivocal,0
unequivocally,1
unfazed,0
unfettered,0
unforgettable,1
unity,0
unlimited,15
unmatched,0
unparalleled,0
unquestionable,0
unquestionably,0
unreal,6
unrestricted,0
unrivaled,0
unselfish,0
unwavering,0
upbeat,2
upgradable,0
upgradeable,0
upgraded,0
upheld,0
uphold,0
uplift,2
uplifting,0
upliftingly,0
upliftment,0
upscale,0
usable,2
useable,0
useful,16
user-friendly,0
user-replaceable,0
valiant,0
valiantly,0
valor,0
valuable,4
variety,9
venerate,0
verifiable,0
veritable,0
versatile,0
versatility,0
vibrant,0
vibrantly,0
victorious,0
victory,7
viewable,0
vigilance,0
vigilant,0
virtue,0
virtuous,1
virtuously,0
visionary,1
vivacious,0
vivid,3
vouch,1
vouchsafe,0
warm,176
warmer,0
warmhearted,0
warmly,0
warmth,5
wealthy,3
welcome,82
well,2007
well-backlit,0
well-balanced,0
well-behaved,0
well-being,0
well-bred,0
well-connected,0
well-educated,0
well-established,0
well-informed,0
well-intentioned,0
well-known,0
well-made,0
well-managed,0
well-mannered,0
well-positioned,0
well-received,0
well-regarded,0
well-rounded,0
well-run,0
well-wishers,0
wellbeing,0
whoa,22
wholeheartedly,2
wholesome,1
whooa,0
whoooa,1
wieldy,0
willing,0
willingly,1
willingness,0
win,1553
windfall,1
winnable,1
winner,32
winners,0
winning,2
wins,0
wisdom,48
wise,24
wisely,1
witty,8
won,0
wonder,468
wonderful,104
wonderfully,5
wonderous,0
wonderously,0
wonders,0
wondrous,2
woo,56
work,8219
workable,0
worked,0
works,0
world-famous,0
worth,150
worth-while,0
worthiness,0
worthwhile,0
worthy,13
wow,542
wowed,0
wowing,0
wows,0
yay,405
youthful,0
zeal,0
zenith,1
zest,0
zippy,1
